class pachon extends bidon{:
int hola,miau,chau ;
char j,p,q;
:}

class miau {:
a,b,c =  ( miau(a,c,2) && true ?? ((c==5) || false) || d<=4 && 1 ?? e!=7 ) && 5>=g ;
j = ((a*b)<1) && 1;

hola(a,4,2);


public int hola(){:
this.a = 2*2;
return 2+2;
:}
:}

class bidon{:
booleano lleno = false;
private int capacidad;
public int status;
bidon (int capacidad){:
this.capacidad = capacidad;
:}
protected booleano estaLLeno(){:
return this.lleno;
:}

if ((a>b)&& 1){:
a = 10;
if ((a>b)&& 1){:
a = 10;
:}

:}

if ((a>b)&& 1){:
a = 10;
:}elseif(a<b){:
j = 10;
:}else{:
a = "holaaaaaa";
:}

switch (a) {:
case 500: a = 500 + 1; break;
case 1500: a = 0;
default: a = a + 2005; break;
:}

do {:
x = y +1;
y = x;
print("mi culo");

:}while (x > 5);

:}